module gitlab.com/sorenmat/certgen

go 1.20

require (
	github.com/caarlos0/spin v1.1.0
	github.com/urfave/cli v1.22.13
)

require (
	github.com/cpuguy83/go-md2man/v2 v2.0.2 // indirect
	github.com/russross/blackfriday/v2 v2.1.0 // indirect
)
